…
```
## [1] "complex"
```

### Need for data types


```r
# import the cat-lovers data from the csv file you downloaded from canvas
cat_lovers <- read_csv("cat-lovers.csv")
cat_lovers
```

```
## # A tibble: 60 x 3
##    name           number_of_cats handedness
##    <chr>          <chr>          <chr>     
##  1 Bernice Warren 0              left      
##  2 Woodrow Stone  0              left      
##  3 Willie Bass    1              left      
##  4 Tyrone Estrada 3              left      
##  5 Alex Daniels   3              left      
##  6 Jane Bates     2              left      
##  7 Latoya Simpson 1              left      
##  8 Darin Woods    1              left      
##  9 Agnes Cobb     0              left      
## 10 Tabitha Grant  0              left      
## # i 50 more rows
```
…
